{
    "features": [
        {
            "geometry": {
                "coordinates": [
                    3.0091,
                    48.82621666666667
                ],
                "type": "Point"
            },
            "properties": {
                "infos": {
                    "airport_frequency": "",
                    "code": "CLMEQ",
                    "country": "FR",
                    "description": "Centre equestre Sud LFPK",
                    "elevation": "140m",
                    "latitude": 48.82621666666667,
                    "longitude": 3.0091,
                    "name": "CLM-Equestre",
                    "runway_direction": "",
                    "runway_length": "",
                    "style": "1"
                },
                "name": "CLM-Equestre",
                "options": {
                    "A1": "180",
                    "Line": "1",
                    "ObsZone": "0",
                    "R1": "1000m",
                    "Style": "2"
                }
            },
            "type": "Feature"
        },
        {
            "geometry": {
                "coordinates": [
                    [
                        3.0091,
                        48.82621666666667
                    ],
                    [
                        3.3362333333333334,
                        48.777816666666666
                    ]
                ],
                "type": "LineString"
            },
            "properties": {
                "name": "24,63 km (283\u00b0)"
            },
            "type": "Feature"
        },
        {
            "geometry": {
                "coordinates": [
                    3.3362333333333334,
                    48.777816666666666
                ],
                "type": "Point"
            },
            "properties": {
                "infos": {
                    "airport_frequency": "",
                    "code": "STMARTIN",
                    "country": "FR",
                    "description": "Eglise",
                    "elevation": "145m",
                    "latitude": 48.777816666666666,
                    "longitude": 3.3362333333333334,
                    "name": "Saint Martin des Champs",
                    "runway_direction": "",
                    "runway_length": "",
                    "style": "16"
                },
                "name": "Saint Martin des Champs",
                "options": {
                    "A1": "45",
                    "ObsZone": "1",
                    "R1": "3000m",
                    "Style": "1"
                }
            },
            "type": "Feature"
        },
        {
            "geometry": {
                "coordinates": [
                    [
                        3.3362333333333334,
                        48.777816666666666
                    ],
                    [
                        2.9341833333333334,
                        48.8449
                    ]
                ],
                "type": "LineString"
            },
            "properties": {
                "name": "30,46 km (104\u00b0)"
            },
            "type": "Feature"
        },
        {
            "geometry": {
                "coordinates": [
                    2.9341833333333334,
                    48.8449
                ],
                "type": "Point"
            },
            "properties": {
                "infos": {
                    "airport_frequency": "",
                    "code": "GOLFCRY",
                    "country": "FR",
                    "description": "Golf de Cr\u00e9cy",
                    "elevation": "140m",
                    "latitude": 48.8449,
                    "longitude": 2.9341833333333334,
                    "name": "Golf de Crecy",
                    "runway_direction": "",
                    "runway_length": "",
                    "style": "1"
                },
                "name": "Golf de Crecy",
                "options": {
                    "A1": "45",
                    "ObsZone": "2",
                    "R1": "3000m",
                    "Style": "1"
                }
            },
            "type": "Feature"
        },
        {
            "geometry": {
                "coordinates": [
                    [
                        2.9341833333333334,
                        48.8449
                    ],
                    [
                        3.0091,
                        48.82621666666667
                    ]
                ],
                "type": "LineString"
            },
            "properties": {
                "name": "5,88 km (291\u00b0)"
            },
            "type": "Feature"
        },
        {
            "geometry": {
                "coordinates": [
                    3.0091,
                    48.82621666666667
                ],
                "type": "Point"
            },
            "properties": {
                "infos": {
                    "airport_frequency": "",
                    "code": "CLMEQ",
                    "country": "FR",
                    "description": "Centre equestre Sud LFPK",
                    "elevation": "140m",
                    "latitude": 48.82621666666667,
                    "longitude": 3.0091,
                    "name": "CLM-Equestre",
                    "runway_direction": "",
                    "runway_length": "",
                    "style": "1"
                },
                "name": "CLM-Equestre",
                "options": {
                    "A1": "180",
                    "Line": "1",
                    "ObsZone": "3",
                    "R1": "1000m",
                    "Style": "3"
                }
            },
            "type": "Feature"
        }
    ],
    "type": "FeatureCollection"
}